// Jest Snapshot v1, https://goo.gl/fbAQLP

exports[`Signup test renders correctly 1`] = `
<div
  className="SignUpForm-root-1"
>
  <div
    className="MuiGrid-container-7 MuiGrid-spacing-xs-24-31"
  >
    <div
      className="MuiGrid-item-8 MuiGrid-grid-xs-5-40"
    />
    <div
      className="MuiGrid-item-8 MuiGrid-grid-xs-4-39"
    >
      <div
        className="MuiPaper-root-105 MuiPaper-elevation1-108 MuiPaper-rounded-106 MuiCard-root-104 SignUpForm-card-4"
      >
        <div
          className="MuiCardContent-root-132 SignUpForm-form-5"
        >
          <h2
            className="MuiTypography-root-133 MuiTypography-h5-149 MuiTypography-gutterBottom-160 SignUpForm-title-3"
          >
            Signup
          </h2>
          <form
            id="form_signup"
          >
            <div>
              <div
                className="MuiFormControl-root-169 MuiFormControl-marginNormal-170"
                onDragStart={[Function]}
                onDrop={[Function]}
              >
                <label
                  className="MuiFormLabel-root-184 MuiInputLabel-root-173 MuiInputLabel-formControl-178 MuiInputLabel-animated-181"
                  data-shrink={false}
                >
                  Provide you name
                </label>
                <div
                  className="MuiInputBase-root-204 MuiInput-root-191 MuiInput-underline-195 MuiInputBase-formControl-205 MuiInput-formControl-192"
                  onClick={[Function]}
                >
                  <input
                    aria-invalid={false}
                    className="MuiInputBase-input-214 MuiInput-input-199"
                    disabled={false}
                    name="name"
                    onBlur={[Function]}
                    onChange={[Function]}
                    onFocus={[Function]}
                    placeholder="Provide you name"
                    required={false}
                    type="text"
                    value=""
                  />
                </div>
              </div>
            </div>
            <div>
              <div
                className="MuiFormControl-root-169 MuiFormControl-marginNormal-170"
                onDragStart={[Function]}
                onDrop={[Function]}
              >
                <label
                  className="MuiFormLabel-root-184 MuiInputLabel-root-173 MuiInputLabel-formControl-178 MuiInputLabel-animated-181"
                  data-shrink={false}
                >
                  Provide an e-mail
                </label>
                <div
                  className="MuiInputBase-root-204 MuiInput-root-191 MuiInput-underline-195 MuiInputBase-formControl-205 MuiInput-formControl-192"
                  onClick={[Function]}
                >
                  <input
                    aria-invalid={false}
                    className="MuiInputBase-input-214 MuiInput-input-199"
                    disabled={false}
                    name="email"
                    onBlur={[Function]}
                    onChange={[Function]}
                    onFocus={[Function]}
                    placeholder="Provide an e-mail"
                    required={false}
                    type="text"
                    value=""
                  />
                </div>
              </div>
            </div>
            <div>
              <div
                className="MuiFormControl-root-169 MuiFormControl-marginNormal-170"
                onDragStart={[Function]}
                onDrop={[Function]}
              >
                <label
                  className="MuiFormLabel-root-184 MuiInputLabel-root-173 MuiInputLabel-formControl-178 MuiInputLabel-animated-181"
                  data-shrink={false}
                >
                  Provide password
                </label>
                <div
                  className="MuiInputBase-root-204 MuiInput-root-191 MuiInput-underline-195 MuiInputBase-formControl-205 MuiInput-formControl-192"
                  onClick={[Function]}
                >
                  <input
                    aria-invalid={false}
                    className="MuiInputBase-input-214 MuiInput-input-199 MuiInputBase-inputType-217 MuiInput-inputType-202"
                    disabled={false}
                    name="password"
                    onBlur={[Function]}
                    onChange={[Function]}
                    onFocus={[Function]}
                    placeholder="Provide password"
                    required={false}
                    type="password"
                    value=""
                  />
                </div>
              </div>
            </div>
            <div>
              <div
                className="MuiFormControl-root-169 MuiFormControl-marginNormal-170"
                onDragStart={[Function]}
                onDrop={[Function]}
              >
                <label
                  className="MuiFormLabel-root-184 MuiInputLabel-root-173 MuiInputLabel-formControl-178 MuiInputLabel-animated-181"
                  data-shrink={false}
                >
                  Repeat password
                </label>
                <div
                  className="MuiInputBase-root-204 MuiInput-root-191 MuiInput-underline-195 MuiInputBase-formControl-205 MuiInput-formControl-192"
                  onClick={[Function]}
                >
                  <input
                    aria-invalid={false}
                    className="MuiInputBase-input-214 MuiInput-input-199 MuiInputBase-inputType-217 MuiInput-inputType-202"
                    disabled={false}
                    name="repPassword"
                    onBlur={[Function]}
                    onChange={[Function]}
                    onFocus={[Function]}
                    placeholder="Repeat password"
                    required={false}
                    type="password"
                    value=""
                  />
                </div>
              </div>
            </div>
            <div
              className="SignUpForm-button-6"
            >
              <button
                className="MuiButtonBase-root-247 MuiButtonBase-disabled-248 MuiButton-root-221 MuiButton-contained-232 MuiButton-containedPrimary-233 MuiButton-raised-235 MuiButton-raisedPrimary-236 MuiButton-disabled-241"
                disabled={true}
                name="form__button_submit"
                onBlur={[Function]}
                onContextMenu={[Function]}
                onFocus={[Function]}
                onKeyDown={[Function]}
                onKeyUp={[Function]}
                onMouseDown={[Function]}
                onMouseLeave={[Function]}
                onMouseUp={[Function]}
                onTouchEnd={[Function]}
                onTouchMove={[Function]}
                onTouchStart={[Function]}
                tabIndex="-1"
                type="submit"
              >
                <span
                  className="MuiButton-label-222"
                >
                  Submit
                </span>
              </button>
            </div>
          </form>
        </div>
      </div>
    </div>
    <div
      className="MuiGrid-item-8 MuiGrid-grid-xs-3-38"
    />
  </div>
</div>
`;
